PLab2.1/Part5/simulation/qsim/part5.msim.vcd
$comment
	File created using the following command:
		vcd file part5.msim.vcd -direction
$end
$date
	Wed May 18 19:21:04 2016
$end
$version
	ModelSim Version 10.1d
$end
$timescale
	1ps
$end
$scope module part5_vlg_vec_tst $end
$var reg 1 ! CLOCK_50 $end
$var wire 1 " HEX0 [6] $end
$var wire 1 # HEX0 [5] $end
$var wire 1 $ HEX0 [4] $end
$var wire 1 % HEX0 [3] $end
$var wire 1 & HEX0 [2] $end
$var wire 1 ' HEX0 [1] $end
$var wire 1 ( HEX0 [0] $end
$var wire 1 ) HEX1 [6] $end
$var wire 1 * HEX1 [5] $end
$var wire 1 + HEX1 [4] $end
$var wire 1 , HEX1 [3] $end
$var wire 1 - HEX1 [2] $end
$var wire 1 . HEX1 [1] $end
$var wire 1 / HEX1 [0] $end
$var wire 1 0 HEX2 [6] $end
$var wire 1 1 HEX2 [5] $end
$var wire 1 2 HEX2 [4] $end
$var wire 1 3 HEX2 [3] $end
$var wire 1 4 HEX2 [2] $end
$var wire 1 5 HEX2 [1] $end
$var wire 1 6 HEX2 [0] $end
$var wire 1 7 HEX3 [6] $end
$var wire 1 8 HEX3 [5] $end
$var wire 1 9 HEX3 [4] $end
$var wire 1 : HEX3 [3] $end
$var wire 1 ; HEX3 [2] $end
$var wire 1 < HEX3 [1] $end
$var wire 1 = HEX3 [0] $end
$var wire 1 > HEX4 [6] $end
$var wire 1 ? HEX4 [5] $end
$var wire 1 @ HEX4 [4] $end
$var wire 1 A HEX4 [3] $end
$var wire 1 B HEX4 [2] $end
$var wire 1 C HEX4 [1] $end
$var wire 1 D HEX4 [0] $end
$var wire 1 E HEX5 [6] $end
$var wire 1 F HEX5 [5] $end
$var wire 1 G HEX5 [4] $end
$var wire 1 H HEX5 [3] $end
$var wire 1 I HEX5 [2] $end
$var wire 1 J HEX5 [1] $end
$var wire 1 K HEX5 [0] $end
$var wire 1 L HEX6 [6] $end
$var wire 1 M HEX6 [5] $end
$var wire 1 N HEX6 [4] $end
$var wire 1 O HEX6 [3] $end
$var wire 1 P HEX6 [2] $end
$var wire 1 Q HEX6 [1] $end
$var wire 1 R HEX6 [0] $end
$var wire 1 S HEX7 [6] $end
$var wire 1 T HEX7 [5] $end
$var wire 1 U HEX7 [4] $end
$var wire 1 V HEX7 [3] $end
$var wire 1 W HEX7 [2] $end
$var wire 1 X HEX7 [1] $end
$var wire 1 Y HEX7 [0] $end
$var wire 1 Z sampler $end
$scope module i1 $end
$var wire 1 [ gnd $end
$var wire 1 \ vcc $end
$var wire 1 ] unknown $end
$var tri1 1 ^ devclrn $end
$var tri1 1 _ devpor $end
$var tri1 1 ` devoe $end
$var wire 1 a L0|contador[0]~28_combout $end
$var wire 1 b L0|contador[0]~29 $end
$var wire 1 c L0|contador[1]~30_combout $end
$var wire 1 d L0|contador[1]~31 $end
$var wire 1 e L0|contador[2]~32_combout $end
$var wire 1 f L0|contador[2]~33 $end
$var wire 1 g L0|contador[3]~34_combout $end
$var wire 1 h L0|contador[3]~35 $end
$var wire 1 i L0|contador[4]~36_combout $end
$var wire 1 j L0|contador[4]~37 $end
$var wire 1 k L0|contador[5]~38_combout $end
$var wire 1 l L0|contador[5]~39 $end
$var wire 1 m L0|contador[6]~40_combout $end
$var wire 1 n L0|contador[6]~41 $end
$var wire 1 o L0|contador[7]~42_combout $end
$var wire 1 p L0|contador[7]~43 $end
$var wire 1 q L0|contador[8]~44_combout $end
$var wire 1 r L0|contador[8]~45 $end
$var wire 1 s L0|contador[9]~46_combout $end
$var wire 1 t L0|contador[9]~47 $end
$var wire 1 u L0|contador[10]~48_combout $end
$var wire 1 v L0|contador[10]~49 $end
$var wire 1 w L0|contador[11]~50_combout $end
$var wire 1 x L0|contador[11]~51 $end
$var wire 1 y L0|contador[12]~52_combout $end
$var wire 1 z L0|contador[12]~53 $end
$var wire 1 { L0|contador[13]~54_combout $end
$var wire 1 | L0|contador[13]~55 $end
$var wire 1 } L0|contador[14]~56_combout $end
$var wire 1 ~ L0|contador[14]~57 $end
$var wire 1 !! L0|contador[15]~58_combout $end
$var wire 1 "! L0|contador[15]~59 $end
$var wire 1 #! L0|contador[16]~60_combout $end
$var wire 1 $! L0|contador[16]~61 $end
$var wire 1 %! L0|contador[17]~62_combout $end
$var wire 1 &! L0|contador[17]~63 $end
$var wire 1 '! L0|contador[18]~64_combout $end
$var wire 1 (! L0|contador[18]~65 $end
$var wire 1 )! L0|contador[19]~66_combout $end
$var wire 1 *! L0|contador[19]~67 $end
$var wire 1 +! L0|contador[20]~68_combout $end
$var wire 1 ,! L0|contador[20]~69 $end
$var wire 1 -! L0|contador[21]~70_combout $end
$var wire 1 .! L0|contador[21]~71 $end
$var wire 1 /! L0|contador[22]~72_combout $end
$var wire 1 0! L0|contador[22]~73 $end
$var wire 1 1! L0|contador[23]~74_combout $end
$var wire 1 2! L0|contador[23]~75 $end
$var wire 1 3! L0|contador[24]~76_combout $end
$var wire 1 4! L0|contador[24]~77 $end
$var wire 1 5! L0|contador[25]~78_combout $end
$var wire 1 6! L0|contador[25]~79 $end
$var wire 1 7! L0|contador[26]~80_combout $end
$var wire 1 8! L0|contador[26]~81 $end
$var wire 1 9! L0|contador[27]~82_combout $end
$var wire 1 :! L0|C~regout $end
$var wire 1 ;! L0|Equal0~0_combout $end
$var wire 1 <! L0|Equal0~1_combout $end
$var wire 1 =! L0|Equal0~2_combout $end
$var wire 1 >! L0|Equal0~3_combout $end
$var wire 1 ?! L0|Equal0~4_combout $end
$var wire 1 @! L0|Equal0~5_combout $end
$var wire 1 A! L0|Equal0~6_combout $end
$var wire 1 B! L0|Equal0~7_combout $end
$var wire 1 C! L0|Equal0~8_combout $end
$var wire 1 D! L0|EA~regout $end
$var wire 1 E! L0|PE~regout $end
$var wire 1 F! L0|Equal0~9_combout $end
$var wire 1 G! L0|PE~0_combout $end
$var wire 1 H! CLOCK_50~combout $end
$var wire 1 I! CLOCK_50~clkctrl_outclk $end
$var wire 1 J! L0|C~clkctrl_outclk $end
$var wire 1 K! L0|EA~feeder_combout $end
$var wire 1 L! L1|EA.S7~regout $end
$var wire 1 M! L1|EA.S0~0_combout $end
$var wire 1 N! L1|EA.S0~regout $end
$var wire 1 O! L1|EA.S1~0_combout $end
$var wire 1 P! L1|EA.S1~regout $end
$var wire 1 Q! L1|EA.S2~regout $end
$var wire 1 R! L1|EA.S3~regout $end
$var wire 1 S! L1|EA.S4~regout $end
$var wire 1 T! L1|EA.S5~regout $end
$var wire 1 U! L1|EA.S6~regout $end
$var wire 1 V! L1|WideOr14~combout $end
$var wire 1 W! L2|HEX[0]~9_combout $end
$var wire 1 X! L2|HEX~6_combout $end
$var wire 1 Y! L2|HEX[1]~7_combout $end
$var wire 1 Z! L2|HEX[3]~8_combout $end
$var wire 1 [! L1|outp0~0_combout $end
$var wire 1 \! L2|HEX[0]~10_combout $end
$var wire 1 ]! L1|WideOr12~combout $end
$var wire 1 ^! L3|HEX[0]~9_combout $end
$var wire 1 _! L3|HEX~6_combout $end
$var wire 1 `! L3|HEX[1]~7_combout $end
$var wire 1 a! L3|HEX[3]~8_combout $end
$var wire 1 b! L1|outp1~0_combout $end
$var wire 1 c! L3|HEX[1]~10_combout $end
$var wire 1 d! L1|WideOr10~combout $end
$var wire 1 e! L4|HEX[0]~9_combout $end
$var wire 1 f! L4|HEX~6_combout $end
$var wire 1 g! L4|HEX[1]~7_combout $end
$var wire 1 h! L4|HEX[3]~8_combout $end
$var wire 1 i! L4|HEX[0]~10_combout $end
$var wire 1 j! L1|WideOr8~0_combout $end
$var wire 1 k! L5|HEX[0]~9_combout $end
$var wire 1 l! L5|HEX~6_combout $end
$var wire 1 m! L5|HEX[1]~7_combout $end
$var wire 1 n! L5|HEX[3]~8_combout $end
$var wire 1 o! L5|HEX[1]~10_combout $end
$var wire 1 p! L1|WideOr6~combout $end
$var wire 1 q! L6|HEX[0]~9_combout $end
$var wire 1 r! L6|HEX~6_combout $end
$var wire 1 s! L6|HEX[1]~7_combout $end
$var wire 1 t! L6|HEX[3]~8_combout $end
$var wire 1 u! L6|HEX[1]~10_combout $end
$var wire 1 v! L1|WideOr4~combout $end
$var wire 1 w! L7|HEX[0]~9_combout $end
$var wire 1 x! L7|HEX~6_combout $end
$var wire 1 y! L7|HEX[1]~7_combout $end
$var wire 1 z! L7|HEX[3]~8_combout $end
$var wire 1 {! L7|HEX[1]~10_combout $end
$var wire 1 |! L1|WideOr2~combout $end
$var wire 1 }! L8|HEX[0]~8_combout $end
$var wire 1 ~! L8|HEX[1]~6_combout $end
$var wire 1 !" L8|HEX[3]~7_combout $end
$var wire 1 "" L8|HEX[0]~9_combout $end
$var wire 1 #" L1|WideOr0~combout $end
$var wire 1 $" L9|HEX[0]~8_combout $end
$var wire 1 %" L9|HEX[1]~6_combout $end
$var wire 1 &" L9|HEX[3]~7_combout $end
$var wire 1 '" L9|HEX[1]~9_combout $end
$var wire 1 (" L0|contador [27] $end
$var wire 1 )" L0|contador [26] $end
$var wire 1 *" L0|contador [25] $end
$var wire 1 +" L0|contador [24] $end
$var wire 1 ," L0|contador [23] $end
$var wire 1 -" L0|contador [22] $end
$var wire 1 ." L0|contador [21] $end
$var wire 1 /" L0|contador [20] $end
$var wire 1 0" L0|contador [19] $end
$var wire 1 1" L0|contador [18] $end
$var wire 1 2" L0|contador [17] $end
$var wire 1 3" L0|contador [16] $end
$var wire 1 4" L0|contador [15] $end
$var wire 1 5" L0|contador [14] $end
$var wire 1 6" L0|contador [13] $end
$var wire 1 7" L0|contador [12] $end
$var wire 1 8" L0|contador [11] $end
$var wire 1 9" L0|contador [10] $end
$var wire 1 :" L0|contador [9] $end
$var wire 1 ;" L0|contador [8] $end
$var wire 1 <" L0|contador [7] $end
$var wire 1 =" L0|contador [6] $end
$var wire 1 >" L0|contador [5] $end
$var wire 1 ?" L0|contador [4] $end
$var wire 1 @" L0|contador [3] $end
$var wire 1 A" L0|contador [2] $end
$var wire 1 B" L0|contador [1] $end
$var wire 1 C" L0|contador [0] $end
$upscope $end
$upscope $end
$enddefinitions $end
#0
$dumpvars
0!
0(
0'
0&
0%
0$
0#
1"
1/
1.
1-
0,
0+
0*
1)
16
15
14
03
02
01
10
0=
1<
1;
0:
09
08
07
1D
0C
0B
1A
0@
0?
0>
1K
1J
1I
1H
1G
1F
1E
1R
1Q
1P
1O
1N
1M
1L
1Y
1X
1W
1V
1U
1T
1S
xZ
0[
1\
x]
1^
1_
1`
1a
0b
0c
1d
0e
0f
0g
1h
0i
0j
0k
1l
0m
0n
0o
1p
0q
0r
0s
1t
0u
0v
0w
1x
0y
0z
0{
1|
0}
0~
0!!
1"!
0#!
0$!
0%!
1&!
0'!
0(!
0)!
1*!
0+!
0,!
0-!
1.!
0/!
00!
01!
12!
03!
04!
05!
16!
07!
08!
09!
0:!
1;!
1<!
0=!
1>!
1?!
1@!
1A!
1B!
0C!
0D!
0E!
1F!
1G!
0H!
0I!
0J!
0K!
0L!
1M!
0N!
1O!
0P!
0Q!
0R!
0S!
0T!
0U!
0V!
0W!
1X!
0Y!
0Z!
1[!
1\!
0]!
1^!
0_!
1`!
1a!
1b!
1c!
0d!
1e!
0f!
1g!
1h!
1i!
1j!
0k!
1l!
1m!
1n!
0o!
0p!
1q!
1r!
0s!
0t!
0u!
1v!
1w!
1x!
1y!
0z!
1{!
1|!
1}!
1~!
0!"
1""
1#"
1$"
1%"
0&"
1'"
0C"
0B"
0A"
0@"
0?"
0>"
0="
0<"
0;"
0:"
09"
08"
07"
06"
05"
04"
03"
02"
01"
00"
0/"
0."
0-"
0,"
0+"
0*"
0)"
0("
$end
#5000
1!
1H!
1I!
0Z
1E!
1K!
#10000
0!
0H!
0I!
1Z
#15000
1!
1H!
1I!
0Z
1D!
#20000
0!
0H!
0I!
1Z
#25000
1!
1H!
1I!
0Z
1C"
1b
0a
1c
#30000
0!
0H!
0I!
1Z
#35000
1!
1H!
1I!
0Z
1B"
0C"
0d
0c
0b
1a
1e
1d
1c
0e
#40000
0!
0H!
0I!
1Z
#45000
1!
1H!
1I!
0Z
1C"
1b
0a
0d
0c
1e
#50000
0!
0H!
0I!
1Z
#55000
1!
1H!
1I!
0Z
1A"
0B"
0C"
1f
0e
1d
1c
0b
1a
1g
0f
1e
0c
0g
#60000
0!
0H!
0I!
1Z
#65000
1!
1H!
1I!
0Z
1C"
1b
0a
1c
#70000
0!
0H!
0I!
1Z
#75000
1!
1H!
1I!
0Z
1B"
0C"
0d
0c
0b
1a
1f
0e
1d
1c
1g
0f
1e
0g
#80000
0!
0H!
0I!
1Z
#85000
1!
1H!
1I!
0Z
1C"
1b
0a
0d
0c
1f
0e
1g
#90000
0!
0H!
0I!
1Z
#95000
1!
1H!
1I!
0Z
1@"
0A"
0B"
0C"
0h
0g
0f
1e
1d
1c
0b
1a
1i
1h
1g
0e
0c
0i
#100000
0!
0H!
0I!
1Z
#105000
1!
1H!
1I!
0Z
1C"
1b
0a
1c
#110000
0!
0H!
0I!
1Z
#115000
1!
1H!
1I!
0Z
1B"
0C"
0d
0c
0b
1a
1e
1d
1c
0e
#120000
0!
0H!
0I!
1Z
#125000
1!
1H!
1I!
0Z
1C"
1b
0a
0d
0c
1e
#130000
0!
0H!
0I!
1Z
#135000
1!
1H!
1I!
0Z
1A"
0B"
0C"
1f
0e
1d
1c
0b
1a
0h
0g
0f
1e
0c
1i
1h
1g
0i
#140000
0!
0H!
0I!
1Z
#145000
1!
1H!
1I!
0Z
1C"
1b
0a
1c
#150000
0!
0H!
0I!
1Z
#155000
1!
1H!
1I!
0Z
1B"
0C"
0d
0c
0b
1a
1f
0e
1d
1c
0h
0g
0f
1e
1i
1h
1g
0i
#160000
0!
0H!
0I!
1Z
#165000
1!
1H!
1I!
0Z
1C"
0;!
1b
0a
0d
0c
1f
0e
0h
0g
1i
#170000
0!
0H!
0I!
1Z
#175000
1!
1H!
1I!
0Z
1?"
0@"
0A"
0B"
0C"
1j
0i
1;!
1h
1g
0f
1e
1d
1c
0b
1a
1k
0j
1i
0g
0e
0c
0k
#180000
0!
0H!
0I!
1Z
#185000
1!
1H!
1I!
0Z
1C"
1b
0a
1c
#190000
0!
0H!
0I!
1Z
#195000
1!
1H!
1I!
0Z
1B"
0C"
0d
0c
0b
1a
1e
1d
1c
0e
#200000
0!
0H!
0I!
1Z
#205000
1!
1H!
1I!
0Z
1C"
1b
0a
0d
0c
1e
#210000
0!
0H!
0I!
1Z
#215000
1!
1H!
1I!
0Z
1A"
0B"
0C"
1f
0e
1d
1c
0b
1a
1g
0f
1e
0c
0g
#220000
0!
0H!
0I!
1Z
#225000
1!
1H!
1I!
0Z
1C"
1b
0a
1c
#230000
0!
0H!
0I!
1Z
#235000
1!
1H!
1I!
0Z
1B"
0C"
0d
0c
0b
1a
1f
0e
1d
1c
1g
0f
1e
0g
#240000
0!
0H!
0I!
1Z
#245000
1!
1H!
1I!
0Z
1C"
1b
0a
0d
0c
1f
0e
1g
#250000
0!
0H!
0I!
1Z
#255000
1!
1H!
1I!
0Z
1@"
0A"
0B"
0C"
0h
0g
0f
1e
1d
1c
0b
1a
1j
0i
1h
1g
0e
0c
1k
0j
1i
0k
#260000
0!
0H!
0I!
1Z
#265000
1!
1H!
1I!
0Z
1C"
1b
0a
1c
#270000
0!
0H!
0I!
1Z
#275000
1!
1H!
1I!
0Z
1B"
0C"
0d
0c
0b
1a
1e
1d
1c
0e
#280000
0!
0H!
0I!
1Z
#285000
1!
1H!
1I!
0Z
1C"
1b
0a
0d
0c
1e
#290000
0!
0H!
0I!
1Z
#295000
1!
1H!
1I!
0Z
1A"
0B"
0C"
1f
0e
1d
1c
0b
1a
0h
0g
0f
1e
0c
1j
0i
1h
1g
1k
0j
1i
0k
#300000
0!
0H!
0I!
1Z
#305000
1!
1H!
1I!
0Z
1C"
1b
0a
1c
#310000
0!
0H!
0I!
1Z
#315000
1!
1H!
1I!
0Z
1B"
0C"
0d
0c
0b
1a
1f
0e
1d
1c
0h
0g
0f
1e
1j
0i
1h
1g
1k
0j
1i
0k
#320000
0!
0H!
0I!
1Z
#325000
1!
1H!
1I!
0Z
1C"
0;!
1b
0a
0d
0c
1f
0e
0h
0g
1j
0i
1k
#330000
0!
0H!
0I!
1Z
#335000
1!
1H!
1I!
0Z
1>"
0?"
0@"
0A"
0B"
0C"
0l
0k
0j
1i
1;!
1h
1g
0f
1e
1d
1c
0b
1a
1m
1l
1k
0i
0g
0e
0c
0m
#340000
0!
0H!
0I!
1Z
#345000
1!
1H!
1I!
0Z
1C"
1b
0a
1c
#350000
0!
0H!
0I!
1Z
#355000
1!
1H!
1I!
0Z
1B"
0C"
0d
0c
0b
1a
1e
1d
1c
0e
#360000
0!
0H!
0I!
1Z
#365000
1!
1H!
1I!
0Z
1C"
1b
0a
0d
0c
1e
#370000
0!
0H!
0I!
1Z
#375000
1!
1H!
1I!
0Z
1A"
0B"
0C"
1f
0e
1d
1c
0b
1a
1g
0f
1e
0c
0g
#380000
0!
0H!
0I!
1Z
#385000
1!
1H!
1I!
0Z
1C"
1b
0a
1c
#390000
0!
0H!
0I!
1Z
#395000
1!
1H!
1I!
0Z
1B"
0C"
0d
0c
0b
1a
1f
0e
1d
1c
1g
0f
1e
0g
#400000
0!
0H!
0I!
1Z
#405000
1!
1H!
1I!
0Z
1C"
1b
0a
0d
0c
1f
0e
1g
#410000
0!
0H!
0I!
1Z
#415000
1!
1H!
1I!
0Z
1@"
0A"
0B"
0C"
0h
0g
0f
1e
1d
1c
0b
1a
1i
1h
1g
0e
0c
0i
#420000
0!
0H!
0I!
1Z
#425000
1!
1H!
1I!
0Z
1C"
1b
0a
1c
#430000
0!
0H!
0I!
1Z
#435000
1!
1H!
1I!
0Z
1B"
0C"
0d
0c
0b
1a
1e
1d
1c
0e
#440000
0!
0H!
0I!
1Z
#445000
1!
1H!
1I!
0Z
1C"
1b
0a
0d
0c
1e
#450000
0!
0H!
0I!
1Z
#455000
1!
1H!
1I!
0Z
1A"
0B"
0C"
1f
0e
1d
1c
0b
1a
0h
0g
0f
1e
0c
1i
1h
1g
0i
#460000
0!
0H!
0I!
1Z
#465000
1!
1H!
1I!
0Z
1C"
1b
0a
1c
#470000
0!
0H!
0I!
1Z
#475000
1!
1H!
1I!
0Z
1B"
0C"
0d
0c
0b
1a
1f
0e
1d
1c
0h
0g
0f
1e
1i
1h
1g
0i
#480000
0!
0H!
0I!
1Z
#485000
1!
1H!
1I!
0Z
1C"
0;!
1b
0a
0d
0c
1f
0e
0h
0g
1i
#490000
0!
0H!
0I!
1Z
#495000
1!
1H!
1I!
0Z
1?"
0@"
0A"
0B"
0C"
1j
0i
1;!
1h
1g
0f
1e
1d
1c
0b
1a
0l
0k
0j
1i
0g
0e
0c
1m
1l
1k
0m
#500000
0!
0H!
0I!
1Z
#505000
1!
1H!
1I!
0Z
1C"
1b
0a
1c
#510000
0!
0H!
0I!
1Z
#515000
1!
1H!
1I!
0Z
1B"
0C"
0d
0c
0b
1a
1e
1d
1c
0e
#520000
0!
0H!
0I!
1Z
#525000
1!
1H!
1I!
0Z
1C"
1b
0a
0d
0c
1e
#530000
0!
0H!
0I!
1Z
#535000
1!
1H!
1I!
0Z
1A"
0B"
0C"
1f
0e
1d
1c
0b
1a
1g
0f
1e
0c
0g
#540000
0!
0H!
0I!
1Z
#545000
1!
1H!
1I!
0Z
1C"
1b
0a
1c
#550000
0!
0H!
0I!
1Z
#555000
1!
1H!
1I!
0Z
1B"
0C"
0d
0c
0b
1a
1f
0e
1d
1c
1g
0f
1e
0g
#560000
0!
0H!
0I!
1Z
#565000
1!
1H!
1I!
0Z
1C"
1b
0a
0d
0c
1f
0e
1g
#570000
0!
0H!
0I!
1Z
#575000
1!
1H!
1I!
0Z
1@"
0A"
0B"
0C"
0h
0g
0f
1e
1d
1c
0b
1a
1j
0i
1h
1g
0e
0c
0l
0k
0j
1i
1m
1l
1k
0m
#580000
0!
0H!
0I!
1Z
#585000
1!
1H!
1I!
0Z
1C"
1b
0a
1c
#590000
0!
0H!
0I!
1Z
#595000
1!
1H!
1I!
0Z
1B"
0C"
0d
0c
0b
1a
1e
1d
1c
0e
#600000
0!
0H!
0I!
1Z
#605000
1!
1H!
1I!
0Z
1C"
1b
0a
0d
0c
1e
#610000
0!
0H!
0I!
1Z
#615000
1!
1H!
1I!
0Z
1A"
0B"
0C"
1f
0e
1d
1c
0b
1a
0h
0g
0f
1e
0c
1j
0i
1h
1g
0l
0k
0j
1i
1m
1l
1k
0m
#620000
0!
0H!
0I!
1Z
#625000
1!
1H!
1I!
0Z
1C"
1b
0a
1c
#630000
0!
0H!
0I!
1Z
#635000
1!
1H!
1I!
0Z
1B"
0C"
0d
0c
0b
1a
1f
0e
1d
1c
0h
0g
0f
1e
1j
0i
1h
1g
0l
0k
0j
1i
1m
1l
1k
0m
#640000
0!
0H!
0I!
1Z
#645000
1!
1H!
1I!
0Z
1C"
0;!
1b
0a
0d
0c
1f
0e
0h
0g
1j
0i
0l
0k
1m
#650000
0!
0H!
0I!
1Z
#655000
1!
1H!
1I!
0Z
1="
0>"
0?"
0@"
0A"
0B"
0C"
1n
0m
1l
1k
0j
1i
1;!
1h
1g
0f
1e
1d
1c
0b
1a
1o
0n
1m
0k
0i
0g
0e
0c
0o
#660000
0!
0H!
0I!
1Z
#665000
1!
1H!
1I!
0Z
1C"
1b
0a
1c
#670000
0!
0H!
0I!
1Z
#675000
1!
1H!
1I!
0Z
1B"
0C"
0d
0c
0b
1a
1e
1d
1c
0e
#680000
0!
0H!
0I!
1Z
#685000
1!
1H!
1I!
0Z
1C"
1b
0a
0d
0c
1e
#690000
0!
0H!
0I!
1Z
#695000
1!
1H!
1I!
0Z
1A"
0B"
0C"
1f
0e
1d
1c
0b
1a
1g
0f
1e
0c
0g
#700000
0!
0H!
0I!
1Z
#705000
1!
1H!
1I!
0Z
1C"
1b
0a
1c
#710000
0!
0H!
0I!
1Z
#715000
1!
1H!
1I!
0Z
1B"
0C"
0d
0c
0b
1a
1f
0e
1d
1c
1g
0f
1e
0g
#720000
0!
0H!
0I!
1Z
#725000
1!
1H!
1I!
0Z
1C"
1b
0a
0d
0c
1f
0e
1g
#730000
0!
0H!
0I!
1Z
#735000
1!
1H!
1I!
0Z
1@"
0A"
0B"
0C"
0h
0g
0f
1e
1d
1c
0b
1a
1i
1h
1g
0e
0c
0i
#740000
0!
0H!
0I!
1Z
#745000
1!
1H!
1I!
0Z
1C"
1b
0a
1c
#750000
0!
0H!
0I!
1Z
#755000
1!
1H!
1I!
0Z
1B"
0C"
0d
0c
0b
1a
1e
1d
1c
0e
#760000
0!
0H!
0I!
1Z
#765000
1!
1H!
1I!
0Z
1C"
1b
0a
0d
0c
1e
#770000
0!
0H!
0I!
1Z
#775000
1!
1H!
1I!
0Z
1A"
0B"
0C"
1f
0e
1d
1c
0b
1a
0h
0g
0f
1e
0c
1i
1h
1g
0i
#780000
0!
0H!
0I!
1Z
#785000
1!
1H!
1I!
0Z
1C"
1b
0a
1c
#790000
0!
0H!
0I!
1Z
#795000
1!
1H!
1I!
0Z
1B"
0C"
0d
0c
0b
1a
1f
0e
1d
1c
0h
0g
0f
1e
1i
1h
1g
0i
#800000
0!
0H!
0I!
1Z
#805000
1!
1H!
1I!
0Z
1C"
0;!
1b
0a
0d
0c
1f
0e
0h
0g
1i
#810000
0!
0H!
0I!
1Z
#815000
1!
1H!
1I!
0Z
1?"
0@"
0A"
0B"
0C"
1j
0i
1;!
1h
1g
0f
1e
1d
1c
0b
1a
1k
0j
1i
0g
0e
0c
0k
#820000
0!
0H!
0I!
1Z
#825000
1!
1H!
1I!
0Z
1C"
1b
0a
1c
#830000
0!
0H!
0I!
1Z
#835000
1!
1H!
1I!
0Z
1B"
0C"
0d
0c
0b
1a
1e
1d
1c
0e
#840000
0!
0H!
0I!
1Z
#845000
1!
1H!
1I!
0Z
1C"
1b
0a
0d
0c
1e
#850000
0!
0H!
0I!
1Z
#855000
1!
1H!
1I!
0Z
1A"
0B"
0C"
1f
0e
1d
1c
0b
1a
1g
0f
1e
0c
0g
#860000
0!
0H!
0I!
1Z
#865000
1!
1H!
1I!
0Z
1C"
1b
0a
1c
#870000
0!
0H!
0I!
1Z
#875000
1!
1H!
1I!
0Z
1B"
0C"
0d
0c
0b
1a
1f
0e
1d
1c
1g
0f
1e
0g
#880000
0!
0H!
0I!
1Z
#885000
1!
1H!
1I!
0Z
1C"
1b
0a
0d
0c
1f
0e
1g
#890000
0!
0H!
0I!
1Z
#895000
1!
1H!
1I!
0Z
1@"
0A"
0B"
0C"
0h
0g
0f
1e
1d
1c
0b
1a
1j
0i
1h
1g
0e
0c
1k
0j
1i
0k
#900000
0!
0H!
0I!
1Z
#905000
1!
1H!
1I!
0Z
1C"
1b
0a
1c
#910000
0!
0H!
0I!
1Z
#915000
1!
1H!
1I!
0Z
1B"
0C"
0d
0c
0b
1a
1e
1d
1c
0e
#920000
0!
0H!
0I!
1Z
#925000
1!
1H!
1I!
0Z
1C"
1b
0a
0d
0c
1e
#930000
0!
0H!
0I!
1Z
#935000
1!
1H!
1I!
0Z
1A"
0B"
0C"
1f
0e
1d
1c
0b
1a
0h
0g
0f
1e
0c
1j
0i
1h
1g
1k
0j
1i
0k
#940000
0!
0H!
0I!
1Z
#945000
1!
1H!
1I!
0Z
1C"
1b
0a
1c
#950000
0!
0H!
0I!
1Z
#955000
1!
1H!
1I!
0Z
1B"
0C"
0d
0c
0b
1a
1f
0e
1d
1c
0h
0g
0f
1e
1j
0i
1h
1g
1k
0j
1i
0k
#960000
0!
0H!
0I!
1Z
#965000
1!
1H!
1I!
0Z
1C"
0;!
1b
0a
0d
0c
1f
0e
0h
0g
1j
0i
1k
#970000
0!
0H!
0I!
1Z
#975000
1!
1H!
1I!
0Z
1>"
0?"
0@"
0A"
0B"
0C"
0l
0k
0j
1i
1;!
1h
1g
0f
1e
1d
1c
0b
1a
1n
0m
1l
1k
0i
0g
0e
0c
1o
0n
1m
0o
#980000
0!
0H!
0I!
1Z
#985000
1!
1H!
1I!
0Z
1C"
1b
0a
1c
#990000
0!
0H!
0I!
1Z
#995000
1!
1H!
1I!
0Z
1B"
0C"
0d
0c
0b
1a
1e
1d
1c
0e
