PLab2.1/Part3/simulation/qsim/part3.msim.vcd
$comment
	File created using the following command:
		vcd file part3.msim.vcd -direction
$end
$date
	Wed May 18 19:16:48 2016
$end
$version
	ModelSim Version 10.1d
$end
$timescale
	1ps
$end
$scope module part3_vlg_vec_tst $end
$var reg 1 ! clock $end
$var reg 1 " cnt_en $end
$var reg 1 # sclr $end
$var wire 1 $ q [15] $end
$var wire 1 % q [14] $end
$var wire 1 & q [13] $end
$var wire 1 ' q [12] $end
$var wire 1 ( q [11] $end
$var wire 1 ) q [10] $end
$var wire 1 * q [9] $end
$var wire 1 + q [8] $end
$var wire 1 , q [7] $end
$var wire 1 - q [6] $end
$var wire 1 . q [5] $end
$var wire 1 / q [4] $end
$var wire 1 0 q [3] $end
$var wire 1 1 q [2] $end
$var wire 1 2 q [1] $end
$var wire 1 3 q [0] $end
$var wire 1 4 sampler $end
$scope module i1 $end
$var wire 1 5 gnd $end
$var wire 1 6 vcc $end
$var wire 1 7 unknown $end
$var tri1 1 8 devclrn $end
$var tri1 1 9 devpor $end
$var tri1 1 : devoe $end
$var wire 1 ; clock~combout $end
$var wire 1 < clock~clkctrl_outclk $end
$var wire 1 = LPM_COUNTER_component|auto_generated|counter_comb_bita0~combout $end
$var wire 1 > ~GND~combout $end
$var wire 1 ? sclr~combout $end
$var wire 1 @ cnt_en~combout $end
$var wire 1 A LPM_COUNTER_component|auto_generated|_~0_combout $end
$var wire 1 B LPM_COUNTER_component|auto_generated|counter_comb_bita0~COUT $end
$var wire 1 C LPM_COUNTER_component|auto_generated|counter_comb_bita1~combout $end
$var wire 1 D LPM_COUNTER_component|auto_generated|counter_comb_bita1~COUT $end
$var wire 1 E LPM_COUNTER_component|auto_generated|counter_comb_bita2~combout $end
$var wire 1 F LPM_COUNTER_component|auto_generated|counter_comb_bita2~COUT $end
$var wire 1 G LPM_COUNTER_component|auto_generated|counter_comb_bita3~combout $end
$var wire 1 H LPM_COUNTER_component|auto_generated|counter_comb_bita3~COUT $end
$var wire 1 I LPM_COUNTER_component|auto_generated|counter_comb_bita4~combout $end
$var wire 1 J LPM_COUNTER_component|auto_generated|counter_comb_bita4~COUT $end
$var wire 1 K LPM_COUNTER_component|auto_generated|counter_comb_bita5~combout $end
$var wire 1 L LPM_COUNTER_component|auto_generated|counter_comb_bita5~COUT $end
$var wire 1 M LPM_COUNTER_component|auto_generated|counter_comb_bita6~combout $end
$var wire 1 N LPM_COUNTER_component|auto_generated|counter_comb_bita6~COUT $end
$var wire 1 O LPM_COUNTER_component|auto_generated|counter_comb_bita7~combout $end
$var wire 1 P LPM_COUNTER_component|auto_generated|counter_comb_bita7~COUT $end
$var wire 1 Q LPM_COUNTER_component|auto_generated|counter_comb_bita8~combout $end
$var wire 1 R LPM_COUNTER_component|auto_generated|counter_comb_bita8~COUT $end
$var wire 1 S LPM_COUNTER_component|auto_generated|counter_comb_bita9~combout $end
$var wire 1 T LPM_COUNTER_component|auto_generated|counter_comb_bita9~COUT $end
$var wire 1 U LPM_COUNTER_component|auto_generated|counter_comb_bita10~combout $end
$var wire 1 V LPM_COUNTER_component|auto_generated|counter_comb_bita10~COUT $end
$var wire 1 W LPM_COUNTER_component|auto_generated|counter_comb_bita11~combout $end
$var wire 1 X LPM_COUNTER_component|auto_generated|counter_comb_bita11~COUT $end
$var wire 1 Y LPM_COUNTER_component|auto_generated|counter_comb_bita12~combout $end
$var wire 1 Z LPM_COUNTER_component|auto_generated|counter_comb_bita12~COUT $end
$var wire 1 [ LPM_COUNTER_component|auto_generated|counter_comb_bita13~combout $end
$var wire 1 \ LPM_COUNTER_component|auto_generated|counter_comb_bita13~COUT $end
$var wire 1 ] LPM_COUNTER_component|auto_generated|counter_comb_bita14~combout $end
$var wire 1 ^ LPM_COUNTER_component|auto_generated|counter_comb_bita14~COUT $end
$var wire 1 _ LPM_COUNTER_component|auto_generated|counter_comb_bita15~combout $end
$var wire 1 ` LPM_COUNTER_component|auto_generated|safe_q [15] $end
$var wire 1 a LPM_COUNTER_component|auto_generated|safe_q [14] $end
$var wire 1 b LPM_COUNTER_component|auto_generated|safe_q [13] $end
$var wire 1 c LPM_COUNTER_component|auto_generated|safe_q [12] $end
$var wire 1 d LPM_COUNTER_component|auto_generated|safe_q [11] $end
$var wire 1 e LPM_COUNTER_component|auto_generated|safe_q [10] $end
$var wire 1 f LPM_COUNTER_component|auto_generated|safe_q [9] $end
$var wire 1 g LPM_COUNTER_component|auto_generated|safe_q [8] $end
$var wire 1 h LPM_COUNTER_component|auto_generated|safe_q [7] $end
$var wire 1 i LPM_COUNTER_component|auto_generated|safe_q [6] $end
$var wire 1 j LPM_COUNTER_component|auto_generated|safe_q [5] $end
$var wire 1 k LPM_COUNTER_component|auto_generated|safe_q [4] $end
$var wire 1 l LPM_COUNTER_component|auto_generated|safe_q [3] $end
$var wire 1 m LPM_COUNTER_component|auto_generated|safe_q [2] $end
$var wire 1 n LPM_COUNTER_component|auto_generated|safe_q [1] $end
$var wire 1 o LPM_COUNTER_component|auto_generated|safe_q [0] $end
$upscope $end
$upscope $end
$enddefinitions $end
#0
$dumpvars
0!
1"
0#
03
02
01
00
0/
0.
0-
0,
0+
0*
0)
0(
0'
0&
0%
0$
x4
05
16
x7
18
19
1:
0;
0<
1=
0>
0?
1@
1A
0B
0C
1D
0E
0F
0G
1H
0I
0J
0K
1L
0M
0N
0O
1P
0Q
0R
0S
1T
0U
0V
0W
1X
0Y
0Z
0[
1\
0]
0^
0_
0o
0n
0m
0l
0k
0j
0i
0h
0g
0f
0e
0d
0c
0b
0a
0`
$end
#10000
1!
1;
1<
04
1o
1B
0=
13
1C
#20000
0!
0;
0<
14
#30000
1!
1;
1<
04
1n
0o
0D
0C
0B
1=
12
03
1E
1D
1C
0E
#40000
0!
0;
0<
14
#50000
1!
1;
1<
04
1o
1B
0=
13
0D
0C
1E
#60000
0!
0;
0<
14
#70000
1!
1;
1<
04
1m
0n
0o
1F
0E
1D
1C
0B
1=
11
02
03
1G
0F
1E
0C
0G
#80000
0!
0;
0<
14
#90000
1!
1;
1<
04
1o
1B
0=
13
1C
#100000
0!
0;
0<
14
#110000
1!
1;
1<
04
1n
0o
0D
0C
0B
1=
12
03
1F
0E
1D
1C
1G
0F
1E
0G
#120000
0!
0;
0<
14
#130000
1!
1;
1<
04
1o
1B
0=
13
0D
0C
1F
0E
1G
#140000
0!
0;
0<
14
#150000
1!
1;
1<
04
1l
0m
0n
0o
0H
0G
0F
1E
1D
1C
0B
1=
10
01
02
03
1I
1H
1G
0E
0C
0I
#160000
0!
0;
0<
14
#170000
1!
1;
1<
04
1o
1B
0=
13
1C
#180000
0!
0;
0<
14
#190000
1!
1;
1<
04
1n
0o
0D
0C
0B
1=
12
03
1E
1D
1C
0E
#200000
0!
0;
0<
14
#210000
1!
1;
1<
04
1o
1B
0=
13
0D
0C
1E
#220000
0!
0;
0<
14
#230000
1!
1;
1<
04
1m
0n
0o
1F
0E
1D
1C
0B
1=
11
02
03
0H
0G
0F
1E
0C
1I
1H
1G
0I
#240000
0!
0;
0<
14
#250000
1!
1;
1<
04
1o
1B
0=
13
1C
#260000
0!
0;
0<
14
#270000
1!
1;
1<
04
1n
0o
0D
0C
0B
1=
12
03
1F
0E
1D
1C
0H
0G
0F
1E
1I
1H
1G
0I
#280000
0!
0;
0<
14
#290000
1!
1;
1<
04
1o
1B
0=
13
0D
0C
1F
0E
0H
0G
1I
#300000
0!
0;
0<
14
#310000
1!
1;
1<
04
1k
0l
0m
0n
0o
1J
0I
1H
1G
0F
1E
1D
1C
0B
1=
1/
00
01
02
03
1K
0J
1I
0G
0E
0C
0K
#320000
1#
0!
1?
0;
0<
14
#330000
1!
1;
1<
04
0k
0I
0/
#340000
0#
0!
0?
0;
0<
14
#350000
1!
1;
1<
04
1o
1B
0=
13
1C
#360000
0!
0;
0<
14
#370000
1!
1;
1<
04
1n
0o
0D
0C
0B
1=
12
03
1E
1D
1C
0E
#380000
0!
0;
0<
14
#390000
1!
1;
1<
04
1o
1B
0=
13
0D
0C
1E
#400000
0!
0;
0<
14
#410000
1!
1;
1<
04
1m
0n
0o
1F
0E
1D
1C
0B
1=
11
02
03
1G
0F
1E
0C
0G
#420000
0!
0;
0<
14
#430000
1!
1;
1<
04
1o
1B
0=
13
1C
#440000
0!
0;
0<
14
#450000
1!
1;
1<
04
1n
0o
0D
0C
0B
1=
12
03
1F
0E
1D
1C
1G
0F
1E
0G
#460000
0!
0;
0<
14
#470000
1!
1;
1<
04
1o
1B
0=
13
0D
0C
1F
0E
1G
#480000
0!
0;
0<
14
#490000
1!
1;
1<
04
1l
0m
0n
0o
0H
0G
0F
1E
1D
1C
0B
1=
10
01
02
03
1I
1H
1G
0E
0C
0I
#500000
0!
0;
0<
14
#510000
1!
1;
1<
04
1o
1B
0=
13
1C
#520000
0!
0;
0<
14
#530000
1!
1;
1<
04
1n
0o
0D
0C
0B
1=
12
03
1E
1D
1C
0E
#540000
0!
0;
0<
14
#550000
1!
1;
1<
04
1o
1B
0=
13
0D
0C
1E
#560000
0!
0;
0<
14
#570000
1!
1;
1<
04
1m
0n
0o
1F
0E
1D
1C
0B
1=
11
02
03
0H
0G
0F
1E
0C
1I
1H
1G
0I
#580000
0!
0;
0<
14
#590000
1!
1;
1<
04
1o
1B
0=
13
1C
#600000
0!
0;
0<
14
#610000
1!
1;
1<
04
1n
0o
0D
0C
0B
1=
12
03
1F
0E
1D
1C
0H
0G
0F
1E
1I
1H
1G
0I
#620000
0!
0;
0<
14
#630000
1!
1;
1<
04
1o
1B
0=
13
0D
0C
1F
0E
0H
0G
1I
#640000
0!
0;
0<
14
#650000
1!
1;
1<
04
1k
0l
0m
0n
0o
1J
0I
1H
1G
0F
1E
1D
1C
0B
1=
1/
00
01
02
03
1K
0J
1I
0G
0E
0C
0K
#660000
0!
0;
0<
14
#670000
1!
1;
1<
04
1o
1B
0=
13
1C
#680000
0!
0;
0<
14
#690000
1!
1;
1<
04
1n
0o
0D
0C
0B
1=
12
03
1E
1D
1C
0E
#700000
0!
0;
0<
14
#710000
1!
1;
1<
04
1o
1B
0=
13
0D
0C
1E
#720000
0!
0;
0<
14
#730000
1!
1;
1<
04
1m
0n
0o
1F
0E
1D
1C
0B
1=
11
02
03
1G
0F
1E
0C
0G
#740000
0!
0;
0<
14
#750000
1!
1;
1<
04
1o
1B
0=
13
1C
#760000
0!
0;
0<
14
#770000
1!
1;
1<
04
1n
0o
0D
0C
0B
1=
12
03
1F
0E
1D
1C
1G
0F
1E
0G
#780000
0!
0;
0<
14
#790000
1!
1;
1<
04
1o
1B
0=
13
0D
0C
1F
0E
1G
#800000
0!
0;
0<
14
#810000
1!
1;
1<
04
1l
0m
0n
0o
0H
0G
0F
1E
1D
1C
0B
1=
10
01
02
03
1J
0I
1H
1G
0E
0C
1K
0J
1I
0K
#820000
0!
0;
0<
14
#830000
1!
1;
1<
04
1o
1B
0=
13
1C
#840000
0!
0;
0<
14
#850000
1!
1;
1<
04
1n
0o
0D
0C
0B
1=
12
03
1E
1D
1C
0E
#860000
0!
0;
0<
14
#870000
1!
1;
1<
04
1o
1B
0=
13
0D
0C
1E
#880000
0!
0;
0<
14
#890000
1!
1;
1<
04
1m
0n
0o
1F
0E
1D
1C
0B
1=
11
02
03
0H
0G
0F
1E
0C
1J
0I
1H
1G
1K
0J
1I
0K
#900000
0!
0;
0<
14
#910000
1!
1;
1<
04
1o
1B
0=
13
1C
#920000
0!
0;
0<
14
#930000
1!
1;
1<
04
1n
0o
0D
0C
0B
1=
12
03
1F
0E
1D
1C
0H
0G
0F
1E
1J
0I
1H
1G
1K
0J
1I
0K
#940000
0!
0;
0<
14
#950000
1!
1;
1<
04
1o
1B
0=
13
0D
0C
1F
0E
0H
0G
1J
0I
1K
#960000
0!
0;
0<
14
#970000
1!
1;
1<
04
1j
0k
0l
0m
0n
0o
0L
0K
0J
1I
1H
1G
0F
1E
1D
1C
0B
1=
1.
0/
00
01
02
03
1M
1L
1K
0I
0G
0E
0C
0M
#980000
0!
0;
0<
14
#990000
1!
1;
1<
04
1o
1B
0=
13
1C
