PLab2.1/Part4/simulation/qsim/part4.msim.vcd
$comment
	File created using the following command:
		vcd file part4.msim.vcd -direction
$end
$date
	Wed May 18 19:18:30 2016
$end
$version
	ModelSim Version 10.1d
$end
$timescale
	1ps
$end
$scope module part4_vlg_vec_tst $end
$var reg 1 ! CLOCK_50 $end
$var wire 1 " HEX0 [6] $end
$var wire 1 # HEX0 [5] $end
$var wire 1 $ HEX0 [4] $end
$var wire 1 % HEX0 [3] $end
$var wire 1 & HEX0 [2] $end
$var wire 1 ' HEX0 [1] $end
$var wire 1 ( HEX0 [0] $end
$var wire 1 ) sampler $end
$scope module i1 $end
$var wire 1 * gnd $end
$var wire 1 + vcc $end
$var wire 1 , unknown $end
$var tri1 1 - devclrn $end
$var tri1 1 . devpor $end
$var tri1 1 / devoe $end
$var wire 1 0 L0|contador[6]~40_combout $end
$var wire 1 1 L0|contador[8]~44_combout $end
$var wire 1 2 L0|contador[10]~48_combout $end
$var wire 1 3 L0|contador[17]~62_combout $end
$var wire 1 4 L0|contador[19]~66_combout $end
$var wire 1 5 L0|contador[20]~68_combout $end
$var wire 1 6 L0|contador[26]~80_combout $end
$var wire 1 7 L0|Equal0~2_combout $end
$var wire 1 8 L0|Equal0~5_combout $end
$var wire 1 9 CLOCK_50~combout $end
$var wire 1 : CLOCK_50~clkctrl_outclk $end
$var wire 1 ; L0|contador[0]~28_combout $end
$var wire 1 < L0|contador[22]~73 $end
$var wire 1 = L0|contador[23]~74_combout $end
$var wire 1 > L0|contador[23]~75 $end
$var wire 1 ? L0|contador[24]~77 $end
$var wire 1 @ L0|contador[25]~78_combout $end
$var wire 1 A L0|contador[25]~79 $end
$var wire 1 B L0|contador[26]~81 $end
$var wire 1 C L0|contador[27]~82_combout $end
$var wire 1 D L0|contador[24]~76_combout $end
$var wire 1 E L0|Equal0~7_combout $end
$var wire 1 F L0|PE~0_combout $end
$var wire 1 G L0|contador[4]~36_combout $end
$var wire 1 H L0|Equal0~1_combout $end
$var wire 1 I L0|contador[1]~30_combout $end
$var wire 1 J L0|contador[3]~34_combout $end
$var wire 1 K L0|Equal0~0_combout $end
$var wire 1 L L0|Equal0~3_combout $end
$var wire 1 M L0|Equal0~4_combout $end
$var wire 1 N L0|PE~1_combout $end
$var wire 1 O L0|PE~regout $end
$var wire 1 P L0|EA~regout $end
$var wire 1 Q L0|contador[0]~29 $end
$var wire 1 R L0|contador[1]~31 $end
$var wire 1 S L0|contador[2]~32_combout $end
$var wire 1 T L0|contador[2]~33 $end
$var wire 1 U L0|contador[3]~35 $end
$var wire 1 V L0|contador[4]~37 $end
$var wire 1 W L0|contador[5]~38_combout $end
$var wire 1 X L0|contador[5]~39 $end
$var wire 1 Y L0|contador[6]~41 $end
$var wire 1 Z L0|contador[7]~42_combout $end
$var wire 1 [ L0|contador[7]~43 $end
$var wire 1 \ L0|contador[8]~45 $end
$var wire 1 ] L0|contador[9]~46_combout $end
$var wire 1 ^ L0|contador[9]~47 $end
$var wire 1 _ L0|contador[10]~49 $end
$var wire 1 ` L0|contador[11]~50_combout $end
$var wire 1 a L0|contador[11]~51 $end
$var wire 1 b L0|contador[12]~52_combout $end
$var wire 1 c L0|contador[12]~53 $end
$var wire 1 d L0|contador[13]~54_combout $end
$var wire 1 e L0|contador[13]~55 $end
$var wire 1 f L0|contador[14]~56_combout $end
$var wire 1 g L0|contador[14]~57 $end
$var wire 1 h L0|contador[15]~58_combout $end
$var wire 1 i L0|contador[15]~59 $end
$var wire 1 j L0|contador[16]~60_combout $end
$var wire 1 k L0|contador[16]~61 $end
$var wire 1 l L0|contador[17]~63 $end
$var wire 1 m L0|contador[18]~64_combout $end
$var wire 1 n L0|contador[18]~65 $end
$var wire 1 o L0|contador[19]~67 $end
$var wire 1 p L0|contador[20]~69 $end
$var wire 1 q L0|contador[21]~70_combout $end
$var wire 1 r L0|contador[21]~71 $end
$var wire 1 s L0|contador[22]~72_combout $end
$var wire 1 t L0|Equal0~6_combout $end
$var wire 1 u L0|Equal0~8_combout $end
$var wire 1 v L0|C~regout $end
$var wire 1 w L0|C~clkctrl_outclk $end
$var wire 1 x L1|P1:counter[0]~0_combout $end
$var wire 1 y L1|P1:counter[0]~regout $end
$var wire 1 z L1|Add0~0_combout $end
$var wire 1 { L1|P1:counter[2]~regout $end
$var wire 1 | L1|counter~0_combout $end
$var wire 1 } L1|P1:counter[3]~regout $end
$var wire 1 ~ L1|counter~1_combout $end
$var wire 1 !! L1|P1:counter[1]~regout $end
$var wire 1 "! L1|Mux6~0_combout $end
$var wire 1 #! L1|Mux5~0_combout $end
$var wire 1 $! L1|Mux4~0_combout $end
$var wire 1 %! L1|Mux3~0_combout $end
$var wire 1 &! L1|Mux2~0_combout $end
$var wire 1 '! L1|Mux1~0_combout $end
$var wire 1 (! L1|Mux0~0_combout $end
$var wire 1 )! L0|contador [27] $end
$var wire 1 *! L0|contador [26] $end
$var wire 1 +! L0|contador [25] $end
$var wire 1 ,! L0|contador [24] $end
$var wire 1 -! L0|contador [23] $end
$var wire 1 .! L0|contador [22] $end
$var wire 1 /! L0|contador [21] $end
$var wire 1 0! L0|contador [20] $end
$var wire 1 1! L0|contador [19] $end
$var wire 1 2! L0|contador [18] $end
$var wire 1 3! L0|contador [17] $end
$var wire 1 4! L0|contador [16] $end
$var wire 1 5! L0|contador [15] $end
$var wire 1 6! L0|contador [14] $end
$var wire 1 7! L0|contador [13] $end
$var wire 1 8! L0|contador [12] $end
$var wire 1 9! L0|contador [11] $end
$var wire 1 :! L0|contador [10] $end
$var wire 1 ;! L0|contador [9] $end
$var wire 1 <! L0|contador [8] $end
$var wire 1 =! L0|contador [7] $end
$var wire 1 >! L0|contador [6] $end
$var wire 1 ?! L0|contador [5] $end
$var wire 1 @! L0|contador [4] $end
$var wire 1 A! L0|contador [3] $end
$var wire 1 B! L0|contador [2] $end
$var wire 1 C! L0|contador [1] $end
$var wire 1 D! L0|contador [0] $end
$var wire 1 E! L1|outp [6] $end
$var wire 1 F! L1|outp [5] $end
$var wire 1 G! L1|outp [4] $end
$var wire 1 H! L1|outp [3] $end
$var wire 1 I! L1|outp [2] $end
$var wire 1 J! L1|outp [1] $end
$var wire 1 K! L1|outp [0] $end
$upscope $end
$upscope $end
$enddefinitions $end
#0
$dumpvars
0!
0(
0'
0&
0%
0$
0#
0"
x)
0*
1+
x,
1-
1.
1/
00
01
02
03
04
05
06
07
18
09
0:
1;
0<
0=
1>
0?
0@
1A
0B
0C
0D
1E
1F
0G
1H
0I
0J
1K
1L
1M
1N
0O
0P
0Q
1R
0S
0T
1U
0V
0W
1X
0Y
0Z
1[
0\
0]
1^
0_
0`
1a
0b
0c
0d
1e
0f
0g
0h
1i
0j
0k
1l
0m
0n
1o
0p
0q
1r
0s
1t
0u
0v
0w
1x
0y
0z
0{
0|
0}
0~
0!!
1"!
0#!
0$!
1%!
1&!
1'!
1(!
0D!
0C!
0B!
0A!
0@!
0?!
0>!
0=!
0<!
0;!
0:!
09!
08!
07!
06!
05!
04!
03!
02!
01!
00!
0/!
0.!
0-!
0,!
0+!
0*!
0)!
0K!
0J!
0I!
0H!
0G!
0F!
0E!
$end
#10000
1!
19
1:
0)
1O
#20000
0!
09
0:
1)
#30000
1!
19
1:
0)
1P
#40000
0!
09
0:
1)
#50000
1!
19
1:
0)
1D!
1Q
0;
1I
#60000
0!
09
0:
1)
#70000
1!
19
1:
0)
0D!
1C!
0Q
1;
0R
0I
1R
1I
1S
0S
#80000
0!
09
0:
1)
#90000
1!
19
1:
0)
1D!
1Q
0;
0R
0I
1S
#100000
0!
09
0:
1)
#110000
1!
19
1:
0)
1B!
0D!
0C!
1T
0S
0Q
1;
1R
1I
1J
0I
0T
1S
0J
#120000
0!
09
0:
1)
#130000
1!
19
1:
0)
1D!
1Q
0;
1I
#140000
0!
09
0:
1)
#150000
1!
19
1:
0)
0D!
1C!
0Q
1;
0R
0I
1R
1I
1T
0S
0T
1S
1J
0J
#160000
0!
09
0:
1)
#170000
1!
19
1:
0)
1D!
1Q
0;
0R
0I
1T
0S
1J
#180000
0!
09
0:
1)
#190000
1!
19
1:
0)
0B!
0D!
1A!
0C!
0T
1S
0Q
1;
0U
0J
1R
1I
1U
1J
0I
1G
0S
0G
#200000
0!
09
0:
1)
#210000
1!
19
1:
0)
1D!
1Q
0;
1I
#220000
0!
09
0:
1)
#230000
1!
19
1:
0)
0D!
1C!
0Q
1;
0R
0I
1R
1I
1S
0S
#240000
0!
09
0:
1)
#250000
1!
19
1:
0)
1D!
1Q
0;
0R
0I
1S
#260000
0!
09
0:
1)
#270000
1!
19
1:
0)
1B!
0D!
0C!
1T
0S
0Q
1;
1R
1I
0U
0J
0I
0T
1S
1G
1U
1J
0G
#280000
0!
09
0:
1)
#290000
1!
19
1:
0)
1D!
1Q
0;
1I
#300000
0!
09
0:
1)
#310000
1!
19
1:
0)
0D!
1C!
0Q
1;
0R
0I
1R
1I
1T
0S
0T
1S
0U
0J
1U
1J
1G
0G
#320000
0!
09
0:
1)
#330000
1!
19
1:
0)
1D!
0K
1Q
0;
0R
0I
1T
0S
0U
0J
1G
#340000
0!
09
0:
1)
#350000
1!
19
1:
0)
0B!
0D!
0A!
0C!
1@!
0T
1S
1K
0Q
1;
1U
1J
1R
1I
1V
0G
0J
0I
0V
1G
0S
1W
0W
#360000
0!
09
0:
1)
#370000
1!
19
1:
0)
1D!
1Q
0;
1I
#380000
0!
09
0:
1)
#390000
1!
19
1:
0)
0D!
1C!
0Q
1;
0R
0I
1R
1I
1S
0S
#400000
0!
09
0:
1)
#410000
1!
19
1:
0)
1D!
1Q
0;
0R
0I
1S
#420000
0!
09
0:
1)
#430000
1!
19
1:
0)
1B!
0D!
0C!
1T
0S
0Q
1;
1R
1I
1J
0I
0T
1S
0J
#440000
0!
09
0:
1)
#450000
1!
19
1:
0)
1D!
1Q
0;
1I
#460000
0!
09
0:
1)
#470000
1!
19
1:
0)
0D!
1C!
0Q
1;
0R
0I
1R
1I
1T
0S
0T
1S
1J
0J
#480000
0!
09
0:
1)
#490000
1!
19
1:
0)
1D!
1Q
0;
0R
0I
1T
0S
1J
#500000
0!
09
0:
1)
#510000
1!
19
1:
0)
0B!
0D!
1A!
0C!
0T
1S
0Q
1;
0U
0J
1R
1I
1U
1J
0I
1V
0G
0S
0V
1G
1W
0W
#520000
0!
09
0:
1)
#530000
1!
19
1:
0)
1D!
1Q
0;
1I
#540000
0!
09
0:
1)
#550000
1!
19
1:
0)
0D!
1C!
0Q
1;
0R
0I
1R
1I
1S
0S
#560000
0!
09
0:
1)
#570000
1!
19
1:
0)
1D!
1Q
0;
0R
0I
1S
#580000
0!
09
0:
1)
#590000
1!
19
1:
0)
1B!
0D!
0C!
1T
0S
0Q
1;
1R
1I
0U
0J
0I
0T
1S
1V
0G
1U
1J
1W
0V
1G
0W
#600000
0!
09
0:
1)
#610000
1!
19
1:
0)
1D!
1Q
0;
1I
#620000
0!
09
0:
1)
#630000
1!
19
1:
0)
0D!
1C!
0Q
1;
0R
0I
1R
1I
1T
0S
0T
1S
0U
0J
1U
1J
1V
0G
0V
1G
1W
0W
#640000
0!
09
0:
1)
#650000
1!
19
1:
0)
1D!
0K
1Q
0;
0R
0I
1T
0S
0U
0J
1V
0G
1W
#660000
0!
09
0:
1)
#670000
1!
19
1:
0)
1?!
0B!
0D!
0A!
0C!
0@!
0X
0W
0T
1S
1K
0Q
1;
1U
1J
1R
1I
0V
1G
10
0J
0I
0G
0S
1X
1W
00
#680000
0!
09
0:
1)
#690000
1!
19
1:
0)
1D!
1Q
0;
1I
#700000
0!
09
0:
1)
#710000
1!
19
1:
0)
0D!
1C!
0Q
1;
0R
0I
1R
1I
1S
0S
#720000
0!
09
0:
1)
#730000
1!
19
1:
0)
1D!
1Q
0;
0R
0I
1S
#740000
0!
09
0:
1)
#750000
1!
19
1:
0)
1B!
0D!
0C!
1T
0S
0Q
1;
1R
1I
1J
0I
0T
1S
0J
#760000
0!
09
0:
1)
#770000
1!
19
1:
0)
1D!
1Q
0;
1I
#780000
0!
09
0:
1)
#790000
1!
19
1:
0)
0D!
1C!
0Q
1;
0R
0I
1R
1I
1T
0S
0T
1S
1J
0J
#800000
0!
09
0:
1)
#810000
1!
19
1:
0)
1D!
1Q
0;
0R
0I
1T
0S
1J
#820000
0!
09
0:
1)
#830000
1!
19
1:
0)
0B!
0D!
1A!
0C!
0T
1S
0Q
1;
0U
0J
1R
1I
1U
1J
0I
1G
0S
0G
#840000
0!
09
0:
1)
#850000
1!
19
1:
0)
1D!
1Q
0;
1I
#860000
0!
09
0:
1)
#870000
1!
19
1:
0)
0D!
1C!
0Q
1;
0R
0I
1R
1I
1S
0S
#880000
0!
09
0:
1)
#890000
1!
19
1:
0)
1D!
1Q
0;
0R
0I
1S
#900000
0!
09
0:
1)
#910000
1!
19
1:
0)
1B!
0D!
0C!
1T
0S
0Q
1;
1R
1I
0U
0J
0I
0T
1S
1G
1U
1J
0G
#920000
0!
09
0:
1)
#930000
1!
19
1:
0)
1D!
1Q
0;
1I
#940000
0!
09
0:
1)
#950000
1!
19
1:
0)
0D!
1C!
0Q
1;
0R
0I
1R
1I
1T
0S
0T
1S
0U
0J
1U
1J
1G
0G
#960000
0!
09
0:
1)
#970000
1!
19
1:
0)
1D!
0K
1Q
0;
0R
0I
1T
0S
0U
0J
1G
#980000
0!
09
0:
1)
#990000
1!
19
1:
0)
0B!
0D!
0A!
0C!
1@!
0T
1S
1K
0Q
1;
1U
1J
1R
1I
1V
0G
0J
0I
0V
1G
0S
0X
0W
1X
1W
10
00
