PLab2.1/Part1/simulation/qsim/part1.msim.vcd
$comment
	File created using the following command:
		vcd file part1.msim.vcd -direction
$end
$date
	Wed May 18 19:10:01 2016
$end
$version
	ModelSim Version 10.1d
$end
$timescale
	1ps
$end
$scope module part1_vlg_vec_tst $end
$var reg 2 ! KEY [1:0] $end
$var reg 2 " SW [1:0] $end
$var wire 1 # HEX0 [6] $end
$var wire 1 $ HEX0 [5] $end
$var wire 1 % HEX0 [4] $end
$var wire 1 & HEX0 [3] $end
$var wire 1 ' HEX0 [2] $end
$var wire 1 ( HEX0 [1] $end
$var wire 1 ) HEX0 [0] $end
$var wire 1 * HEX1 [6] $end
$var wire 1 + HEX1 [5] $end
$var wire 1 , HEX1 [4] $end
$var wire 1 - HEX1 [3] $end
$var wire 1 . HEX1 [2] $end
$var wire 1 / HEX1 [1] $end
$var wire 1 0 HEX1 [0] $end
$var wire 1 1 HEX2 [6] $end
$var wire 1 2 HEX2 [5] $end
$var wire 1 3 HEX2 [4] $end
$var wire 1 4 HEX2 [3] $end
$var wire 1 5 HEX2 [2] $end
$var wire 1 6 HEX2 [1] $end
$var wire 1 7 HEX2 [0] $end
$var wire 1 8 HEX3 [6] $end
$var wire 1 9 HEX3 [5] $end
$var wire 1 : HEX3 [4] $end
$var wire 1 ; HEX3 [3] $end
$var wire 1 < HEX3 [2] $end
$var wire 1 = HEX3 [1] $end
$var wire 1 > HEX3 [0] $end
$var wire 1 ? sampler $end
$scope module i1 $end
$var wire 1 @ gnd $end
$var wire 1 A vcc $end
$var wire 1 B unknown $end
$var tri1 1 C devclrn $end
$var tri1 1 D devpor $end
$var tri1 1 E devoe $end
$var wire 1 F KEY[0]~clkctrl_outclk $end
$var wire 1 G L0|T~0_combout $end
$var wire 1 H L0|T~regout $end
$var wire 1 I L:1:L1|T~0_combout $end
$var wire 1 J L:1:L1|T~regout $end
$var wire 1 K L:2:L1|T~0_combout $end
$var wire 1 L L:2:L1|T~regout $end
$var wire 1 M L:4:L1|T~0_combout $end
$var wire 1 N L:4:L1|T~regout $end
$var wire 1 O L:5:L1|T~0_combout $end
$var wire 1 P L:5:L1|T~regout $end
$var wire 1 Q L:3:L1|T~0_combout $end
$var wire 1 R L:3:L1|T~regout $end
$var wire 1 S L:6:L1|T~0_combout $end
$var wire 1 T L:6:L1|T~regout $end
$var wire 1 U L:7:L1|T~0_combout $end
$var wire 1 V L:7:L1|T~regout $end
$var wire 1 W auxiliar[8]~0_combout $end
$var wire 1 X L:9:L1|T~0_combout $end
$var wire 1 Y L:9:L1|T~regout $end
$var wire 1 Z L:11:L1|T~0_combout $end
$var wire 1 [ L:11:L1|T~regout $end
$var wire 1 \ L:12:L1|T~0_combout $end
$var wire 1 ] L:12:L1|T~regout $end
$var wire 1 ^ L:13:L1|T~0_combout $end
$var wire 1 _ L:13:L1|T~regout $end
$var wire 1 ` L:14:L1|T~0_combout $end
$var wire 1 a L:14:L1|T~regout $end
$var wire 1 b L:15:L1|T~0_combout $end
$var wire 1 c L:15:L1|T~regout $end
$var wire 1 d L2|HEX[0]~0_combout $end
$var wire 1 e L2|HEX[1]~1_combout $end
$var wire 1 f L2|HEX[2]~2_combout $end
$var wire 1 g L2|HEX[3]~3_combout $end
$var wire 1 h L2|HEX[4]~4_combout $end
$var wire 1 i L2|HEX[5]~5_combout $end
$var wire 1 j L2|HEX[6]~6_combout $end
$var wire 1 k L:8:L1|T~0_combout $end
$var wire 1 l L:8:L1|T~regout $end
$var wire 1 m L:10:L1|T~0_combout $end
$var wire 1 n L:10:L1|T~regout $end
$var wire 1 o L3|HEX[0]~0_combout $end
$var wire 1 p L3|HEX[1]~1_combout $end
$var wire 1 q L3|HEX[2]~2_combout $end
$var wire 1 r L3|HEX[3]~3_combout $end
$var wire 1 s L3|HEX[4]~4_combout $end
$var wire 1 t L3|HEX[5]~5_combout $end
$var wire 1 u L3|HEX[6]~6_combout $end
$var wire 1 v L4|HEX[0]~0_combout $end
$var wire 1 w L4|HEX[1]~1_combout $end
$var wire 1 x L4|HEX[2]~2_combout $end
$var wire 1 y L4|HEX[3]~3_combout $end
$var wire 1 z L4|HEX[4]~4_combout $end
$var wire 1 { L4|HEX[5]~5_combout $end
$var wire 1 | L4|HEX[6]~6_combout $end
$var wire 1 } L5|HEX[0]~0_combout $end
$var wire 1 ~ L5|HEX[1]~1_combout $end
$var wire 1 !! L5|HEX[2]~2_combout $end
$var wire 1 "! L5|HEX[3]~3_combout $end
$var wire 1 #! L5|HEX[4]~4_combout $end
$var wire 1 $! L5|HEX[5]~5_combout $end
$var wire 1 %! L5|HEX[6]~6_combout $end
$var wire 1 &! auxiliar [15] $end
$var wire 1 '! auxiliar [14] $end
$var wire 1 (! auxiliar [13] $end
$var wire 1 )! auxiliar [12] $end
$var wire 1 *! auxiliar [11] $end
$var wire 1 +! auxiliar [10] $end
$var wire 1 ,! auxiliar [9] $end
$var wire 1 -! auxiliar [8] $end
$var wire 1 .! auxiliar [7] $end
$var wire 1 /! auxiliar [6] $end
$var wire 1 0! auxiliar [5] $end
$var wire 1 1! auxiliar [4] $end
$var wire 1 2! auxiliar [3] $end
$var wire 1 3! auxiliar [2] $end
$var wire 1 4! auxiliar [1] $end
$var wire 1 5! auxiliar [0] $end
$var wire 1 6! SW~combout [1] $end
$var wire 1 7! SW~combout [0] $end
$var wire 1 8! KEY~combout [1] $end
$var wire 1 9! KEY~combout [0] $end
$upscope $end
$upscope $end
$enddefinitions $end
#0
$dumpvars
b0 !
b10 "
0)
0(
0'
0&
0%
0$
1#
00
0/
0.
0-
0,
0+
1*
07
06
05
04
03
02
11
0>
0=
0<
0;
0:
09
18
x?
0@
1A
xB
1C
1D
1E
0F
1G
0H
0I
0J
0K
0L
0M
0N
0O
0P
0Q
0R
0S
0T
0U
0V
0W
0X
0Y
0Z
0[
0\
0]
0^
0_
0`
0a
0b
0c
0d
0e
0f
0g
0h
0i
0j
0k
0l
0m
0n
0o
0p
0q
0r
0s
0t
0u
0v
0w
0x
0y
0z
0{
0|
0}
0~
0!!
0"!
0#!
0$!
0%!
z5!
z4!
03!
z2!
z1!
00!
z/!
z.!
0-!
z,!
z+!
0*!
z)!
z(!
0'!
z&!
07!
16!
09!
z8!
$end
#10000
b1 !
19!
1F
0?
1H
1$!
1#!
1"!
1}
1I
0G
1$
1%
1&
1)
#20000
b0 !
09!
0F
1?
#30000
b1 !
19!
1F
0?
1J
0H
1%!
0#!
0"!
1!!
0}
1G
0%
0&
1'
0)
0#
#40000
b0 !
09!
0F
1?
#50000
b1 !
19!
1F
0?
1H
1#!
0!!
1K
0I
0G
1%
0'
#60000
b0 !
09!
0F
1?
#70000
b1 !
19!
1F
0?
1L
0J
0H
0$!
1"!
1}
1G
0$
1&
1)
#80000
b0 !
09!
0F
1?
#90000
b1 !
19!
1F
0?
1H
0"!
1~
0}
1I
0G
0&
1(
0)
#100000
b0 !
09!
0F
1?
#110000
b1 !
19!
1F
0?
1J
0H
0#!
1G
0%
#120000
b0 !
09!
0F
1?
#130000
b1 !
19!
1F
0?
1H
0%!
1$!
1#!
1"!
0~
13!
0K
0I
0G
1Q
1$
1%
1&
0(
1#
#140000
b0 !
09!
0F
1?
#150000
b1 !
19!
1F
0?
1R
0L
0J
0H
1%!
0$!
0#!
0"!
0Q
1M
03!
1G
1Q
0M
0$
0%
0&
0#
#160000
b0 !
09!
0F
1?
#170000
b1 !
19!
1F
0?
1H
1#!
1I
0G
1%
#180000
b0 !
09!
0F
1?
#190000
b1 !
19!
1F
0?
1J
0H
0#!
1"!
1G
0%
1&
#200000
b0 !
09!
0F
1?
#210000
b1 !
19!
1F
0?
1H
0"!
1~
1}
1K
0I
0G
0&
1(
1)
#220000
b0 !
09!
0F
1?
#230000
b1 !
19!
1F
0?
1L
0J
0H
0%!
1!!
0}
1G
1'
0)
1#
#240000
b0 !
09!
0F
1?
#250000
b1 !
19!
1F
0?
1H
1%!
1$!
0!!
0~
1}
1I
0G
1$
0'
0(
1)
0#
#260000
b0 !
09!
0F
1?
#270000
b1 !
19!
1F
0?
1J
0H
0$!
1!!
1~
0}
1G
0$
1'
1(
0)
#280000
b0 !
09!
0F
1?
#290000
b1 !
19!
1F
0?
1H
1"!
13!
0K
0I
0G
0Q
1M
1&
#300000
b0 !
09!
0F
1?
#310000
b1 !
19!
1F
0?
0R
1N
0L
0J
0H
0%!
0"!
0!!
0~
1Q
1{
1z
1y
1v
03!
1G
0Q
0&
0'
0(
1+
1,
1-
10
1#
#320000
b11 "
b0 !
09!
17!
0F
1?
#330000
b1 !
19!
1F
0?
0N
0{
0z
0y
0v
0M
0+
0,
0-
00
#340000
b10 "
b0 !
09!
07!
0F
1?
#350000
b1 !
19!
1F
0?
1H
1$!
1#!
1"!
1}
1I
0G
1$
1%
1&
1)
#360000
b0 !
09!
0F
1?
#370000
b1 !
19!
1F
0?
1J
0H
1%!
0#!
0"!
1!!
0}
1G
0%
0&
1'
0)
0#
#380000
b0 !
09!
0F
1?
#390000
b1 !
19!
1F
0?
1H
1#!
0!!
1K
0I
0G
1%
0'
#400000
b0 !
09!
0F
1?
#410000
b1 !
19!
1F
0?
1L
0J
0H
0$!
1"!
1}
1G
0$
1&
1)
#420000
b0 !
09!
0F
1?
#430000
b1 !
19!
1F
0?
1H
0"!
1~
0}
1I
0G
0&
1(
0)
#440000
b0 !
09!
0F
1?
#450000
b1 !
19!
1F
0?
1J
0H
0#!
1G
0%
#460000
b0 !
09!
0F
1?
#470000
b1 !
19!
1F
0?
1H
0%!
1$!
1#!
1"!
0~
13!
0K
0I
0G
1Q
1$
1%
1&
0(
1#
#480000
b0 !
09!
0F
1?
#490000
b1 !
19!
1F
0?
1R
0L
0J
0H
1%!
0$!
0#!
0"!
0Q
1M
03!
1G
1Q
0M
0$
0%
0&
0#
#500000
b0 !
09!
0F
1?
#510000
b1 !
19!
1F
0?
1H
1#!
1I
0G
1%
#520000
b0 !
09!
0F
1?
#530000
b1 !
19!
1F
0?
1J
0H
0#!
1"!
1G
0%
1&
#540000
b0 !
09!
0F
1?
#550000
b1 !
19!
1F
0?
1H
0"!
1~
1}
1K
0I
0G
0&
1(
1)
#560000
b0 !
09!
0F
1?
#570000
b1 !
19!
1F
0?
1L
0J
0H
0%!
1!!
0}
1G
1'
0)
1#
#580000
b0 !
09!
0F
1?
#590000
b1 !
19!
1F
0?
1H
1%!
1$!
0!!
0~
1}
1I
0G
1$
0'
0(
1)
0#
#600000
b0 !
09!
0F
1?
#610000
b1 !
19!
1F
0?
1J
0H
0$!
1!!
1~
0}
1G
0$
1'
1(
0)
#620000
b0 !
09!
0F
1?
#630000
b1 !
19!
1F
0?
1H
1"!
13!
0K
0I
0G
0Q
1M
1&
#640000
b0 !
09!
0F
1?
#650000
b1 !
19!
1F
0?
0R
1N
0L
0J
0H
0%!
0"!
0!!
0~
1Q
1{
1z
1y
1v
03!
1G
0Q
0&
0'
0(
1+
1,
1-
10
1#
#660000
b0 !
09!
0F
1?
#670000
b1 !
19!
1F
0?
1H
1$!
1#!
1"!
1}
1I
0G
1$
1%
1&
1)
#680000
b0 !
09!
0F
1?
#690000
b1 !
19!
1F
0?
1J
0H
1%!
0#!
0"!
1!!
0}
1G
0%
0&
1'
0)
0#
#700000
b0 !
09!
0F
1?
#710000
b1 !
19!
1F
0?
1H
1#!
0!!
1K
0I
0G
1%
0'
#720000
b0 !
09!
0F
1?
#730000
b1 !
19!
1F
0?
1L
0J
0H
0$!
1"!
1}
1G
0$
1&
1)
#740000
b0 !
09!
0F
1?
#750000
b1 !
19!
1F
0?
1H
0"!
1~
0}
1I
0G
0&
1(
0)
#760000
b0 !
09!
0F
1?
#770000
b1 !
19!
1F
0?
1J
0H
0#!
1G
0%
#780000
b0 !
09!
0F
1?
#790000
b1 !
19!
1F
0?
1H
0%!
1$!
1#!
1"!
0~
13!
0K
0I
0G
1Q
1$
1%
1&
0(
1#
#800000
b0 !
09!
0F
1?
#810000
b1 !
19!
1F
0?
1R
0L
0J
0H
1%!
0$!
0#!
0"!
0Q
1O
0M
03!
1G
1Q
0O
1M
0$
0%
0&
0#
#820000
b0 !
09!
0F
1?
#830000
b1 !
19!
1F
0?
1H
1#!
1I
0G
1%
#840000
b0 !
09!
0F
1?
#850000
b1 !
19!
1F
0?
1J
0H
0#!
1"!
1G
0%
1&
#860000
b0 !
09!
0F
1?
#870000
b1 !
19!
1F
0?
1H
0"!
1~
1}
1K
0I
0G
0&
1(
1)
#880000
b0 !
09!
0F
1?
#890000
b1 !
19!
1F
0?
1L
0J
0H
0%!
1!!
0}
1G
1'
0)
1#
#900000
b0 !
09!
0F
1?
#910000
b1 !
19!
1F
0?
1H
1%!
1$!
0!!
0~
1}
1I
0G
1$
0'
0(
1)
0#
#920000
b0 !
09!
0F
1?
#930000
b1 !
19!
1F
0?
1J
0H
0$!
1!!
1~
0}
1G
0$
1'
1(
0)
#940000
b0 !
09!
0F
1?
#950000
b1 !
19!
1F
0?
1H
1"!
13!
0K
0I
0G
0Q
1O
0M
1&
#960000
b0 !
09!
0F
1?
#970000
b1 !
19!
1F
0?
0R
1P
0N
0L
0J
0H
0%!
0"!
0!!
0~
1Q
1|
0z
0y
1x
0v
03!
1G
0Q
0&
0'
0(
0,
0-
1.
00
1#
0*
#980000
b0 !
09!
0F
1?
#990000
b1 !
19!
1F
0?
1H
1$!
1#!
1"!
1}
1I
0G
1$
1%
1&
1)
